%!PS-Adobe-3.0 EPSF-3.0
%%Creator: cairo 1.15.10 (http://cairographics.org)
%%CreationDate: Mon Aug 27 10:45:03 2018
%%Pages: 1
%%DocumentData: Clean7Bit
%%LanguageLevel: 2
%%BoundingBox: 0 0 223 274
%%EndComments
%%BeginProlog
50 dict begin
/q { gsave } bind def
/Q { grestore } bind def
/cm { 6 array astore concat } bind def
/w { setlinewidth } bind def
/J { setlinecap } bind def
/j { setlinejoin } bind def
/M { setmiterlimit } bind def
/d { setdash } bind def
/m { moveto } bind def
/l { lineto } bind def
/c { curveto } bind def
/h { closepath } bind def
/re { exch dup neg 3 1 roll 5 3 roll moveto 0 rlineto
      0 exch rlineto 0 rlineto closepath } bind def
/S { stroke } bind def
/f { fill } bind def
/f* { eofill } bind def
/n { newpath } bind def
/W { clip } bind def
/W* { eoclip } bind def
/BT { } bind def
/ET { } bind def
/BDC { mark 3 1 roll /BDC pdfmark } bind def
/EMC { mark /EMC pdfmark } bind def
/cairo_store_point { /cairo_point_y exch def /cairo_point_x exch def } def
/Tj { show currentpoint cairo_store_point } bind def
/TJ {
  {
    dup
    type /stringtype eq
    { show } { -0.001 mul 0 cairo_font_matrix dtransform rmoveto } ifelse
  } forall
  currentpoint cairo_store_point
} bind def
/cairo_selectfont { cairo_font_matrix aload pop pop pop 0 0 6 array astore
    cairo_font exch selectfont cairo_point_x cairo_point_y moveto } bind def
/Tf { pop /cairo_font exch def /cairo_font_matrix where
      { pop cairo_selectfont } if } bind def
/Td { matrix translate cairo_font_matrix matrix concatmatrix dup
      /cairo_font_matrix exch def dup 4 get exch 5 get cairo_store_point
      /cairo_font where { pop cairo_selectfont } if } bind def
/Tm { 2 copy 8 2 roll 6 array astore /cairo_font_matrix exch def
      cairo_store_point /cairo_font where { pop cairo_selectfont } if } bind def
/g { setgray } bind def
/rg { setrgbcolor } bind def
/d1 { setcachedevice } bind def
/cairo_data_source {
  CairoDataIndex CairoData length lt
    { CairoData CairoDataIndex get /CairoDataIndex CairoDataIndex 1 add def }
    { () } ifelse
} def
/cairo_flush_ascii85_file { cairo_ascii85_file status { cairo_ascii85_file flushfile } if } def
/cairo_image { image cairo_flush_ascii85_file } def
/cairo_imagemask { imagemask cairo_flush_ascii85_file } def
%%EndProlog
%%BeginSetup
%%EndSetup
%%Page: 1 1
%%BeginPageSetup
%%PageBoundingBox: 0 0 223 274
%%EndPageSetup
q 0 0 223 274 rectclip
1 0 0 -1 0 274 cm q
0 g
2.25 w
0 J
0 j
[] 0.0 d
10 M q 1 0 0 1 0 0 cm
111 30.75 m 111 41.176 l S Q
111 46.238 m 108.75 39.488 l 111 41.176 l 113.25 39.488 l h
111 46.238 m f
q 1 0 0 1 0 0 cm
111 46.238 m 108.75 39.488 l 111 41.176 l 113.25 39.488 l h
111 46.238 m S Q
1 g
48 0.75 m 174 0.75 l 176.492 0.75 178.5 2.758 178.5 5.25 c 178.5 26.25 
l 178.5 28.742 176.492 30.75 174 30.75 c 48 30.75 l 45.508 30.75 43.5 28.742
 43.5 26.25 c 43.5 5.25 l 43.5 2.758 45.508 0.75 48 0.75 c h
48 0.75 m f
0 g
1.5 w
4 M q 1 0 0 1 0 0 cm
48 0.75 m 174 0.75 l 176.492 0.75 178.5 2.758 178.5 5.25 c 178.5 26.25 
l 178.5 28.742 176.492 30.75 174 30.75 c 48 30.75 l 45.508 30.75 43.5 28.742
 43.5 26.25 c 43.5 5.25 l 43.5 2.758 45.508 0.75 48 0.75 c h
48 0.75 m S Q
2.25 w
10 M q 1 0 0 1 0 0 cm
111 78.75 m 111.75 78.75 l 111.75 89.926 l S Q
111.75 94.988 m 109.5 88.238 l 111.75 89.926 l 114 88.238 l h
111.75 94.988 m f
q 1 0 0 1 0 0 cm
111.75 94.988 m 109.5 88.238 l 111.75 89.926 l 114 88.238 l h
111.75 94.988 m S Q
1 g
48 48.75 m 174 48.75 l 176.492 48.75 178.5 50.758 178.5 53.25 c 178.5 74.25
 l 178.5 76.742 176.492 78.75 174 78.75 c 48 78.75 l 45.508 78.75 43.5 76.742
 43.5 74.25 c 43.5 53.25 l 43.5 50.758 45.508 48.75 48 48.75 c h
48 48.75 m f
0 g
1.5 w
4 M q 1 0 0 1 0 0 cm
48 48.75 m 174 48.75 l 176.492 48.75 178.5 50.758 178.5 53.25 c 178.5 74.25
 l 178.5 76.742 176.492 78.75 174 78.75 c 48 78.75 l 45.508 78.75 43.5 76.742
 43.5 74.25 c 43.5 53.25 l 43.5 50.758 45.508 48.75 48 48.75 c h
48 48.75 m S Q
2.25 w
10 M q 1 0 0 1 0 0 cm
111.75 127.5 m 111.75 137.926 l S Q
111.75 142.988 m 109.5 136.238 l 111.75 137.926 l 114 136.238 l h
111.75 142.988 m f
q 1 0 0 1 0 0 cm
111.75 142.988 m 109.5 136.238 l 111.75 137.926 l 114 136.238 l h
111.75 142.988 m S Q
1 g
5.25 97.5 m 217.5 97.5 l 219.992 97.5 222 99.508 222 102 c 222 123 l 222
 125.492 219.992 127.5 217.5 127.5 c 5.25 127.5 l 2.758 127.5 0.75 125.492
 0.75 123 c 0.75 102 l 0.75 99.508 2.758 97.5 5.25 97.5 c h
5.25 97.5 m f
0 g
1.5 w
4 M q 1 0 0 1 0 0 cm
5.25 97.5 m 217.5 97.5 l 219.992 97.5 222 99.508 222 102 c 222 123 l 222
 125.492 219.992 127.5 217.5 127.5 c 5.25 127.5 l 2.758 127.5 0.75 125.492
 0.75 123 c 0.75 102 l 0.75 99.508 2.758 97.5 5.25 97.5 c h
5.25 97.5 m S Q
2.25 w
10 M q 1 0 0 1 0 0 cm
111.75 175.5 m 111.75 186.676 l S Q
111.75 191.738 m 109.5 184.988 l 111.75 186.676 l 114 184.988 l h
111.75 191.738 m f
q 1 0 0 1 0 0 cm
111.75 191.738 m 109.5 184.988 l 111.75 186.676 l 114 184.988 l h
111.75 191.738 m S Q
1 g
48.375 145.5 m 174.375 145.5 l 176.867 145.5 178.875 147.508 178.875 150
 c 178.875 171 l 178.875 173.492 176.867 175.5 174.375 175.5 c 48.375 175.5
 l 45.883 175.5 43.875 173.492 43.875 171 c 43.875 150 l 43.875 147.508 
45.883 145.5 48.375 145.5 c h
48.375 145.5 m f
0 g
1.5 w
4 M q 1 0 0 1 0 0 cm
48.375 145.5 m 174.375 145.5 l 176.867 145.5 178.875 147.508 178.875 150
 c 178.875 171 l 178.875 173.492 176.867 175.5 174.375 175.5 c 48.375 175.5
 l 45.883 175.5 43.875 173.492 43.875 171 c 43.875 150 l 43.875 147.508 
45.883 145.5 48.375 145.5 c h
48.375 145.5 m S Q
1 g
18.75 243 m 204.75 243 l 207.242 243 209.25 245.008 209.25 247.5 c 209.25
 268.5 l 209.25 270.992 207.242 273 204.75 273 c 18.75 273 l 16.258 273 
14.25 270.992 14.25 268.5 c 14.25 247.5 l 14.25 245.008 16.258 243 18.75
 243 c h
18.75 243 m f
0 g
q 1 0 0 1 0 0 cm
18.75 243 m 204.75 243 l 207.242 243 209.25 245.008 209.25 247.5 c 209.25
 268.5 l 209.25 270.992 207.242 273 204.75 273 c 18.75 273 l 16.258 273 
14.25 270.992 14.25 268.5 c 14.25 247.5 l 14.25 245.008 16.258 243 18.75
 243 c h
18.75 243 m S Q
2.25 w
10 M q 1 0 0 1 0 0 cm
111.75 224.25 m 111.75 239.25 l 111.75 228 l 111.75 235.426 l S Q
111.75 240.488 m 109.5 233.738 l 111.75 235.426 l 114 233.738 l h
111.75 240.488 m f
q 1 0 0 1 0 0 cm
111.75 240.488 m 109.5 233.738 l 111.75 235.426 l 114 233.738 l h
111.75 240.488 m S Q
1 g
48.75 194.25 m 174.75 194.25 l 177.242 194.25 179.25 196.258 179.25 198.75
 c 179.25 219.75 l 179.25 222.242 177.242 224.25 174.75 224.25 c 48.75 224.25
 l 46.258 224.25 44.25 222.242 44.25 219.75 c 44.25 198.75 l 44.25 196.258
 46.258 194.25 48.75 194.25 c h
48.75 194.25 m f
0 g
1.5 w
4 M q 1 0 0 1 0 0 cm
48.75 194.25 m 174.75 194.25 l 177.242 194.25 179.25 196.258 179.25 198.75
 c 179.25 219.75 l 179.25 222.242 177.242 224.25 174.75 224.25 c 48.75 224.25
 l 46.258 224.25 44.25 222.242 44.25 219.75 c 44.25 198.75 l 44.25 196.258
 46.258 194.25 48.75 194.25 c h
48.75 194.25 m S Q
Q Q
showpage
%%Trailer
end
%%EOF
