%!PS-Adobe-3.0 EPSF-3.0
%%Creator: cairo 1.15.10 (http://cairographics.org)
%%CreationDate: Mon Aug 27 10:39:29 2018
%%Pages: 1
%%DocumentData: Clean7Bit
%%LanguageLevel: 2
%%BoundingBox: 0 0 541 342
%%EndComments
%%BeginProlog
50 dict begin
/q { gsave } bind def
/Q { grestore } bind def
/cm { 6 array astore concat } bind def
/w { setlinewidth } bind def
/J { setlinecap } bind def
/j { setlinejoin } bind def
/M { setmiterlimit } bind def
/d { setdash } bind def
/m { moveto } bind def
/l { lineto } bind def
/c { curveto } bind def
/h { closepath } bind def
/re { exch dup neg 3 1 roll 5 3 roll moveto 0 rlineto
      0 exch rlineto 0 rlineto closepath } bind def
/S { stroke } bind def
/f { fill } bind def
/f* { eofill } bind def
/n { newpath } bind def
/W { clip } bind def
/W* { eoclip } bind def
/BT { } bind def
/ET { } bind def
/BDC { mark 3 1 roll /BDC pdfmark } bind def
/EMC { mark /EMC pdfmark } bind def
/cairo_store_point { /cairo_point_y exch def /cairo_point_x exch def } def
/Tj { show currentpoint cairo_store_point } bind def
/TJ {
  {
    dup
    type /stringtype eq
    { show } { -0.001 mul 0 cairo_font_matrix dtransform rmoveto } ifelse
  } forall
  currentpoint cairo_store_point
} bind def
/cairo_selectfont { cairo_font_matrix aload pop pop pop 0 0 6 array astore
    cairo_font exch selectfont cairo_point_x cairo_point_y moveto } bind def
/Tf { pop /cairo_font exch def /cairo_font_matrix where
      { pop cairo_selectfont } if } bind def
/Td { matrix translate cairo_font_matrix matrix concatmatrix dup
      /cairo_font_matrix exch def dup 4 get exch 5 get cairo_store_point
      /cairo_font where { pop cairo_selectfont } if } bind def
/Tm { 2 copy 8 2 roll 6 array astore /cairo_font_matrix exch def
      cairo_store_point /cairo_font where { pop cairo_selectfont } if } bind def
/g { setgray } bind def
/rg { setrgbcolor } bind def
/d1 { setcachedevice } bind def
/cairo_data_source {
  CairoDataIndex CairoData length lt
    { CairoData CairoDataIndex get /CairoDataIndex CairoDataIndex 1 add def }
    { () } ifelse
} def
/cairo_flush_ascii85_file { cairo_ascii85_file status { cairo_ascii85_file flushfile } if } def
/cairo_image { image cairo_flush_ascii85_file } def
/cairo_imagemask { imagemask cairo_flush_ascii85_file } def
%%EndProlog
%%BeginSetup
%%EndSetup
%%Page: 1 1
%%BeginPageSetup
%%PageBoundingBox: 0 0 541 342
%%EndPageSetup
q 0 0 541 342 rectclip
1 0 0 -1 0 342 cm q
1 g
23.25 146.25 279 195 re f
0 g
1.5 w
0 J
0 j
[] 0.0 d
4 M q 1 0 0 1 0 0 cm
23.25 146.25 279 195 re S Q
10 M q 1 0 0 1 0 0 cm
23.25 146.25 m 23.25 341.25 l 302.25 146.25 m 302.25 341.25 l S Q
1 g
0.75 64.5 141 52.5 re f
0 g
4 M q 1 0 0 1 0 0 cm
0.75 64.5 141 52.5 re S Q
10 M q 1 0 0 1 0 0 cm
0.75 64.5 m 0.75 117 l 141.75 64.5 m 141.75 117 l S Q
1 g
192.375 64.5 141 52.5 re f
0 g
4 M q 1 0 0 1 0 0 cm
192.375 64.5 141 52.5 re S Q
10 M q 1 0 0 1 0 0 cm
192.375 64.5 m 192.375 117 l 333.375 64.5 m 333.375 117 l S Q
1 g
77.25 0.75 m 255.75 0.75 l 264.059 0.75 270.75 7.441 270.75 15.75 c 270.75
 24.059 264.059 30.75 255.75 30.75 c 77.25 30.75 l 68.941 30.75 62.25 24.059
 62.25 15.75 c 62.25 7.441 68.941 0.75 77.25 0.75 c h
77.25 0.75 m f
0 g
4 M q 1 0 0 1 0 0 cm
77.25 0.75 m 255.75 0.75 l 264.059 0.75 270.75 7.441 270.75 15.75 c 270.75
 24.059 264.059 30.75 255.75 30.75 c 77.25 30.75 l 68.941 30.75 62.25 24.059
 62.25 15.75 c 62.25 7.441 68.941 0.75 77.25 0.75 c h
77.25 0.75 m S Q
1 g
380.25 48.375 159.75 159.75 re f
0 g
q 1 0 0 1 0 0 cm
380.25 48.375 159.75 159.75 re S Q
0.75 w
10 M q 1 0 0 1 0 0 cm
460.5 72 m 460.5 77.723 l S Q
460.5 81.66 m 458.754 76.41 l 460.5 77.723 l 462.246 76.41 l h
460.5 81.66 m f
q 1 0 0 1 0 0 cm
460.5 81.66 m 458.754 76.41 l 460.5 77.723 l 462.246 76.41 l h
460.5 81.66 m S Q
1 g
430.125 56.625 m 490.125 56.625 l 494.281 56.625 497.625 59.969 497.625
 64.125 c 497.625 68.281 494.281 71.625 490.125 71.625 c 430.125 71.625 
l 425.969 71.625 422.625 68.281 422.625 64.125 c 422.625 59.969 425.969 
56.625 430.125 56.625 c h
430.125 56.625 m f
0 g
1.5 w
4 M q 1 0 0 1 0 0 cm
430.125 56.625 m 490.125 56.625 l 494.281 56.625 497.625 59.969 497.625
 64.125 c 497.625 68.281 494.281 71.625 490.125 71.625 c 430.125 71.625 
l 425.969 71.625 422.625 68.281 422.625 64.125 c 422.625 59.969 425.969 
56.625 430.125 56.625 c h
430.125 56.625 m S Q
0.75 w
10 M q 1 0 0 1 0 0 cm
460.5 97.5 m 460.5 101.723 l S Q
460.5 105.66 m 458.754 100.41 l 460.5 101.723 l 462.246 100.41 l h
460.5 105.66 m f
q 1 0 0 1 0 0 cm
460.5 105.66 m 458.754 100.41 l 460.5 101.723 l 462.246 100.41 l h
460.5 105.66 m S Q
1 g
430.125 82.125 m 490.125 82.125 l 494.281 82.125 497.625 85.469 497.625
 89.625 c 497.625 93.781 494.281 97.125 490.125 97.125 c 430.125 97.125 
l 425.969 97.125 422.625 93.781 422.625 89.625 c 422.625 85.469 425.969 
82.125 430.125 82.125 c h
430.125 82.125 m f
0 g
1.5 w
4 M q 1 0 0 1 0 0 cm
430.125 82.125 m 490.125 82.125 l 494.281 82.125 497.625 85.469 497.625
 89.625 c 497.625 93.781 494.281 97.125 490.125 97.125 c 430.125 97.125 
l 425.969 97.125 422.625 93.781 422.625 89.625 c 422.625 85.469 425.969 
82.125 430.125 82.125 c h
430.125 82.125 m S Q
0.75 w
10 M q 1 0 0 1 0 0 cm
460.5 121.5 m 460.5 126.473 l S Q
460.5 130.41 m 458.754 125.16 l 460.5 126.473 l 462.246 125.16 l h
460.5 130.41 m f
q 1 0 0 1 0 0 cm
460.5 130.41 m 458.754 125.16 l 460.5 126.473 l 462.246 125.16 l h
460.5 130.41 m S Q
1 g
400.125 106.125 m 520.125 106.125 l 524.281 106.125 527.625 109.469 527.625
 113.625 c 527.625 117.781 524.281 121.125 520.125 121.125 c 400.125 121.125
 l 395.969 121.125 392.625 117.781 392.625 113.625 c 392.625 109.469 395.969
 106.125 400.125 106.125 c h
400.125 106.125 m f
0 g
1.5 w
4 M q 1 0 0 1 0 0 cm
400.125 106.125 m 520.125 106.125 l 524.281 106.125 527.625 109.469 527.625
 113.625 c 527.625 117.781 524.281 121.125 520.125 121.125 c 400.125 121.125
 l 395.969 121.125 392.625 117.781 392.625 113.625 c 392.625 109.469 395.969
 106.125 400.125 106.125 c h
400.125 106.125 m S Q
0.75 w
10 M q 1 0 0 1 0 0 cm
460.5 146.25 m 460.5 151.223 l S Q
460.5 155.16 m 458.754 149.91 l 460.5 151.223 l 462.246 149.91 l h
460.5 155.16 m f
q 1 0 0 1 0 0 cm
460.5 155.16 m 458.754 149.91 l 460.5 151.223 l 462.246 149.91 l h
460.5 155.16 m S Q
1 g
430.125 130.875 m 490.125 130.875 l 494.281 130.875 497.625 134.219 497.625
 138.375 c 497.625 142.531 494.281 145.875 490.125 145.875 c 430.125 145.875
 l 425.969 145.875 422.625 142.531 422.625 138.375 c 422.625 134.219 425.969
 130.875 430.125 130.875 c h
430.125 130.875 m f
0 g
1.5 w
4 M q 1 0 0 1 0 0 cm
430.125 130.875 m 490.125 130.875 l 494.281 130.875 497.625 134.219 497.625
 138.375 c 497.625 142.531 494.281 145.875 490.125 145.875 c 430.125 145.875
 l 425.969 145.875 422.625 142.531 422.625 138.375 c 422.625 134.219 425.969
 130.875 430.125 130.875 c h
430.125 130.875 m S Q
1 g
403.875 179.25 m 516.375 179.25 l 520.531 179.25 523.875 182.594 523.875
 186.75 c 523.875 190.906 520.531 194.25 516.375 194.25 c 403.875 194.25
 l 399.719 194.25 396.375 190.906 396.375 186.75 c 396.375 182.594 399.719
 179.25 403.875 179.25 c h
403.875 179.25 m f
0 g
q 1 0 0 1 0 0 cm
403.875 179.25 m 516.375 179.25 l 520.531 179.25 523.875 182.594 523.875
 186.75 c 523.875 190.906 520.531 194.25 516.375 194.25 c 403.875 194.25
 l 399.719 194.25 396.375 190.906 396.375 186.75 c 396.375 182.594 399.719
 179.25 403.875 179.25 c h
403.875 179.25 m S Q
1 g
430.125 155.625 m 490.125 155.625 l 494.281 155.625 497.625 158.969 497.625
 163.125 c 497.625 167.281 494.281 170.625 490.125 170.625 c 430.125 170.625
 l 425.969 170.625 422.625 167.281 422.625 163.125 c 422.625 158.969 425.969
 155.625 430.125 155.625 c h
430.125 155.625 m f
0 g
q 1 0 0 1 0 0 cm
430.125 155.625 m 490.125 155.625 l 494.281 155.625 497.625 158.969 497.625
 163.125 c 497.625 167.281 494.281 170.625 490.125 170.625 c 430.125 170.625
 l 425.969 170.625 422.625 167.281 422.625 163.125 c 422.625 158.969 425.969
 155.625 430.125 155.625 c h
430.125 155.625 m S Q
0.75 w
10 M q 1 0 0 1 0 0 cm
460.5 171 m 460.5 174.473 l S Q
460.5 178.41 m 458.754 173.16 l 460.5 174.473 l 462.246 173.16 l h
460.5 178.41 m f
q 1 0 0 1 0 0 cm
460.5 178.41 m 458.754 173.16 l 460.5 174.473 l 462.246 173.16 l h
460.5 178.41 m S Q
1.5 w
q 1 0 0 1 0 0 cm
270.75 15.75 m 380.25 88.5 l S Q
q 1 0 0 1 0 0 cm
369.75 81 m 379.574 75.789 l S Q
1 g
30.75 71.25 m 120.75 71.25 l 129.059 71.25 135.75 77.941 135.75 86.25 c
 135.75 94.559 129.059 101.25 120.75 101.25 c 30.75 101.25 l 22.441 101.25
 15.75 94.559 15.75 86.25 c 15.75 77.941 22.441 71.25 30.75 71.25 c h
30.75 71.25 m f
0 g
4 M q 1 0 0 1 0 0 cm
30.75 71.25 m 120.75 71.25 l 129.059 71.25 135.75 77.941 135.75 86.25 c
 135.75 94.559 129.059 101.25 120.75 101.25 c 30.75 101.25 l 22.441 101.25
 15.75 94.559 15.75 86.25 c 15.75 77.941 22.441 71.25 30.75 71.25 c h
30.75 71.25 m S Q
1 g
219.75 71.625 m 302.25 71.625 l 310.559 71.625 317.25 78.316 317.25 86.625
 c 317.25 94.934 310.559 101.625 302.25 101.625 c 219.75 101.625 l 211.441
 101.625 204.75 94.934 204.75 86.625 c 204.75 78.316 211.441 71.625 219.75
 71.625 c h
219.75 71.625 m f
0 g
q 1 0 0 1 0 0 cm
219.75 71.625 m 302.25 71.625 l 310.559 71.625 317.25 78.316 317.25 86.625
 c 317.25 94.934 310.559 101.625 302.25 101.625 c 219.75 101.625 l 211.441
 101.625 204.75 94.934 204.75 86.625 c 204.75 78.316 211.441 71.625 219.75
 71.625 c h
219.75 71.625 m S Q
0.992157 g
112.957 31.559 m 96.949 54.422 l 103.094 58.723 l 89.852 63.906 l 90.191
 49.688 l 96.336 53.988 l 112.344 31.129 l h
112.957 31.559 m f
0 g
1.228728 w
10 M q -0.700208 1 -1 -0.700208 0 0 cm
-31.896 -90.623 m -9.034 -90.624 l -9.035 -96.768 l 0.665 -90.317 l -9.035
 -83.865 l -9.036 -90.009 l -31.896 -90.01 l h
-31.896 -90.623 m S Q
0.992157 g
62.465 117.488 m 71.359 132.895 l 77.965 129.078 l 78 144.891 l 64.324 
136.953 l 70.93 133.141 l 62.035 117.734 l h
62.465 117.488 m f
0 g
1.299038 w
q 0.57735 1 -1 0.57735 0 0 cm
115.164 4.025 m 130.57 4.025 l 130.568 -2.581 l 142.443 4.239 l 130.568
 11.059 l 130.569 4.454 l 115.163 4.454 l h
115.164 4.025 m S Q
0.992157 g
262.977 118.145 m 249.484 134.223 l 255.492 139.266 l 240.297 145.125 l
 243.43 129.145 l 249.438 134.184 l 262.93 118.105 l h
262.977 118.145 m f
0 g
1.149067 w
q -0.8391 1 -1 -0.8391 0 0 cm
-60.161 -212.496 m -44.082 -212.495 l -44.081 -218.504 l -33.16 -212.472
 l -44.081 -206.442 l -44.082 -212.448 l -60.16 -212.449 l h
-60.161 -212.496 m S Q
1 g
107.25 162.375 m 219.75 162.375 l 228.059 162.375 234.75 169.066 234.75
 177.375 c 234.75 185.684 228.059 192.375 219.75 192.375 c 107.25 192.375
 l 98.941 192.375 92.25 185.684 92.25 177.375 c 92.25 169.066 98.941 162.375
 107.25 162.375 c h
107.25 162.375 m f
0 g
1.5 w
4 M q 1 0 0 1 0 0 cm
107.25 162.375 m 219.75 162.375 l 228.059 162.375 234.75 169.066 234.75
 177.375 c 234.75 185.684 228.059 192.375 219.75 192.375 c 107.25 192.375
 l 98.941 192.375 92.25 185.684 92.25 177.375 c 92.25 169.066 98.941 162.375
 107.25 162.375 c h
107.25 162.375 m S Q
0.992157 g
224.781 30.754 m 240.789 53.613 l 246.934 49.313 l 247.273 63.531 l 234.031
 58.348 l 240.176 54.047 l 224.168 31.184 l h
224.781 30.754 m f
0 g
1.228728 w
10 M q 0.700208 1 -1 0.700208 0 0 cm
126.249 -136.381 m 149.109 -136.382 l 149.11 -142.526 l 158.811 -136.073
 l 149.111 -129.623 l 149.112 -135.767 l 126.249 -135.767 l h
126.249 -136.381 m S Q
1 g
106.5 250.125 m 219 250.125 l 227.309 250.125 234 256.816 234 265.125 c
 234 273.434 227.309 280.125 219 280.125 c 106.5 280.125 l 98.191 280.125
 91.5 273.434 91.5 265.125 c 91.5 256.816 98.191 250.125 106.5 250.125 c
 h
106.5 250.125 m f
0 g
1.5 w
4 M q 1 0 0 1 0 0 cm
106.5 250.125 m 219 250.125 l 227.309 250.125 234 256.816 234 265.125 c
 234 273.434 227.309 280.125 219 280.125 c 106.5 280.125 l 98.191 280.125
 91.5 273.434 91.5 265.125 c 91.5 256.816 98.191 250.125 106.5 250.125 c
 h
106.5 250.125 m S Q
1 g
106.5 207.375 m 219 207.375 l 227.309 207.375 234 214.066 234 222.375 c
 234 230.684 227.309 237.375 219 237.375 c 106.5 237.375 l 98.191 237.375
 91.5 230.684 91.5 222.375 c 91.5 214.066 98.191 207.375 106.5 207.375 c
 h
106.5 207.375 m f
0 g
q 1 0 0 1 0 0 cm
106.5 207.375 m 219 207.375 l 227.309 207.375 234 214.066 234 222.375 c
 234 230.684 227.309 237.375 219 237.375 c 106.5 237.375 l 98.191 237.375
 91.5 230.684 91.5 222.375 c 91.5 214.066 98.191 207.375 106.5 207.375 c
 h
106.5 207.375 m S Q
1 g
69 295.125 m 256.5 295.125 l 264.809 295.125 271.5 301.816 271.5 310.125
 c 271.5 318.434 264.809 325.125 256.5 325.125 c 69 325.125 l 60.691 325.125
 54 318.434 54 310.125 c 54 301.816 60.691 295.125 69 295.125 c h
69 295.125 m f
0 g
q 1 0 0 1 0 0 cm
69 295.125 m 256.5 295.125 l 264.809 295.125 271.5 301.816 271.5 310.125
 c 271.5 318.434 264.809 325.125 256.5 325.125 c 69 325.125 l 60.691 325.125
 54 318.434 54 310.125 c 54 301.816 60.691 295.125 69 295.125 c h
69 295.125 m S Q
2.25 w
10 M q 1 0 0 1 0 0 cm
162.75 207.75 m 163.5 192.75 l S Q
q 1 0 0 1 0 0 cm
162.75 250.5 m 162.75 237.75 l S Q
q 1 0 0 1 0 0 cm
162.75 280.5 m 162.75 295.5 l S Q
Q Q
showpage
%%Trailer
end
%%EOF
