%!PS-Adobe-3.0 EPSF-3.0
%%Creator: cairo 1.15.10 (http://cairographics.org)
%%CreationDate: Mon Aug 27 22:07:16 2018
%%Pages: 1
%%DocumentData: Clean7Bit
%%LanguageLevel: 2
%%BoundingBox: 0 0 518 373
%%EndComments
%%BeginProlog
50 dict begin
/q { gsave } bind def
/Q { grestore } bind def
/cm { 6 array astore concat } bind def
/w { setlinewidth } bind def
/J { setlinecap } bind def
/j { setlinejoin } bind def
/M { setmiterlimit } bind def
/d { setdash } bind def
/m { moveto } bind def
/l { lineto } bind def
/c { curveto } bind def
/h { closepath } bind def
/re { exch dup neg 3 1 roll 5 3 roll moveto 0 rlineto
      0 exch rlineto 0 rlineto closepath } bind def
/S { stroke } bind def
/f { fill } bind def
/f* { eofill } bind def
/n { newpath } bind def
/W { clip } bind def
/W* { eoclip } bind def
/BT { } bind def
/ET { } bind def
/BDC { mark 3 1 roll /BDC pdfmark } bind def
/EMC { mark /EMC pdfmark } bind def
/cairo_store_point { /cairo_point_y exch def /cairo_point_x exch def } def
/Tj { show currentpoint cairo_store_point } bind def
/TJ {
  {
    dup
    type /stringtype eq
    { show } { -0.001 mul 0 cairo_font_matrix dtransform rmoveto } ifelse
  } forall
  currentpoint cairo_store_point
} bind def
/cairo_selectfont { cairo_font_matrix aload pop pop pop 0 0 6 array astore
    cairo_font exch selectfont cairo_point_x cairo_point_y moveto } bind def
/Tf { pop /cairo_font exch def /cairo_font_matrix where
      { pop cairo_selectfont } if } bind def
/Td { matrix translate cairo_font_matrix matrix concatmatrix dup
      /cairo_font_matrix exch def dup 4 get exch 5 get cairo_store_point
      /cairo_font where { pop cairo_selectfont } if } bind def
/Tm { 2 copy 8 2 roll 6 array astore /cairo_font_matrix exch def
      cairo_store_point /cairo_font where { pop cairo_selectfont } if } bind def
/g { setgray } bind def
/rg { setrgbcolor } bind def
/d1 { setcachedevice } bind def
/cairo_data_source {
  CairoDataIndex CairoData length lt
    { CairoData CairoDataIndex get /CairoDataIndex CairoDataIndex 1 add def }
    { () } ifelse
} def
/cairo_flush_ascii85_file { cairo_ascii85_file status { cairo_ascii85_file flushfile } if } def
/cairo_image { image cairo_flush_ascii85_file } def
/cairo_imagemask { imagemask cairo_flush_ascii85_file } def
%%EndProlog
%%BeginSetup
%%EndSetup
%%Page: 1 1
%%BeginPageSetup
%%PageBoundingBox: 0 0 518 373
%%EndPageSetup
q 0 0 518 373 rectclip
1 0 0 -1 0 373 cm q
1 g
92.25 0.75 m 209.25 0.75 l 210.082 0.75 210.75 1.418 210.75 2.25 c 210.75
 29.25 l 210.75 30.082 210.082 30.75 209.25 30.75 c 92.25 30.75 l 91.418
 30.75 90.75 30.082 90.75 29.25 c 90.75 2.25 l 90.75 1.418 91.418 0.75 92.25
 0.75 c h
92.25 0.75 m f
0 g
1.5 w
0 J
0 j
[] 0.0 d
4 M q 1 0 0 1 0 0 cm
92.25 0.75 m 209.25 0.75 l 210.082 0.75 210.75 1.418 210.75 2.25 c 210.75
 29.25 l 210.75 30.082 210.082 30.75 209.25 30.75 c 92.25 30.75 l 91.418
 30.75 90.75 30.082 90.75 29.25 c 90.75 2.25 l 90.75 1.418 91.418 0.75 92.25
 0.75 c h
92.25 0.75 m S Q
1 g
3.75 120 m 111 120 l 112.66 120 114 121.34 114 123 c 114 147 l 114 148.66
 112.66 150 111 150 c 3.75 150 l 2.09 150 0.75 148.66 0.75 147 c 0.75 123
 l 0.75 121.34 2.09 120 3.75 120 c h
3.75 120 m f
0 g
q 1 0 0 1 0 0 cm
3.75 120 m 111 120 l 112.66 120 114 121.34 114 123 c 114 147 l 114 148.66
 112.66 150 111 150 c 3.75 150 l 2.09 150 0.75 148.66 0.75 147 c 0.75 123
 l 0.75 121.34 2.09 120 3.75 120 c h
3.75 120 m S Q
1 g
190.5 120 m 300 120 l 300.832 120 301.5 120.668 301.5 121.5 c 301.5 148.5
 l 301.5 149.332 300.832 150 300 150 c 190.5 150 l 189.668 150 189 149.332
 189 148.5 c 189 121.5 l 189 120.668 189.668 120 190.5 120 c h
190.5 120 m f
0 g
q 1 0 0 1 0 0 cm
190.5 120 m 300 120 l 300.832 120 301.5 120.668 301.5 121.5 c 301.5 148.5
 l 301.5 149.332 300.832 150 300 150 c 190.5 150 l 189.668 150 189 149.332
 189 148.5 c 189 121.5 l 189 120.668 189.668 120 190.5 120 c h
190.5 120 m S Q
1 g
68.25 187.5 m 234.75 187.5 l 236.41 187.5 237.75 188.84 237.75 190.5 c 
237.75 214.5 l 237.75 216.16 236.41 217.5 234.75 217.5 c 68.25 217.5 l 66.59
 217.5 65.25 216.16 65.25 214.5 c 65.25 190.5 l 65.25 188.84 66.59 187.5
 68.25 187.5 c h
68.25 187.5 m f
0 g
q 1 0 0 1 0 0 cm
68.25 187.5 m 234.75 187.5 l 236.41 187.5 237.75 188.84 237.75 190.5 c 
237.75 214.5 l 237.75 216.16 236.41 217.5 234.75 217.5 c 68.25 217.5 l 66.59
 217.5 65.25 216.16 65.25 214.5 c 65.25 190.5 l 65.25 188.84 66.59 187.5
 68.25 187.5 c h
68.25 187.5 m S Q
0.992157 g
150.57 30.75 m 150.57 42 l 154.5 42 l 150.375 49.5 l 146.25 42 l 150.18
 42 l 150.18 30.75 l h
150.57 30.75 m f
0 g
10 M q 0 1 -1 0 0 0 cm
30.75 -150.57 m 42 -150.57 l 42 -154.5 l 49.5 -150.375 l 42 -146.25 l 42
 -150.18 l 30.75 -150.18 l h
30.75 -150.57 m S Q
1 g
87.75 289.5 m 214.5 289.5 l 216.992 289.5 219 291.508 219 294 c 219 315
 l 219 317.492 216.992 319.5 214.5 319.5 c 87.75 319.5 l 85.258 319.5 83.25
 317.492 83.25 315 c 83.25 294 l 83.25 291.508 85.258 289.5 87.75 289.5 
c h
87.75 289.5 m f
0 g
4 M q 1 0 0 1 0 0 cm
87.75 289.5 m 214.5 289.5 l 216.992 289.5 219 291.508 219 294 c 219 315
 l 219 317.492 216.992 319.5 214.5 319.5 c 87.75 319.5 l 85.258 319.5 83.25
 317.492 83.25 315 c 83.25 294 l 83.25 291.508 85.258 289.5 87.75 289.5 
c h
87.75 289.5 m S Q
1 g
75 237 m 226.5 237 l 228.16 237 229.5 238.34 229.5 240 c 229.5 264 l 229.5
 265.66 228.16 267 226.5 267 c 75 267 l 73.34 267 72 265.66 72 264 c 72 
240 l 72 238.34 73.34 237 75 237 c h
75 237 m f
0 g
q 1 0 0 1 0 0 cm
75 237 m 226.5 237 l 228.16 237 229.5 238.34 229.5 240 c 229.5 264 l 229.5
 265.66 228.16 267 226.5 267 c 75 267 l 73.34 267 72 265.66 72 264 c 72 
240 l 72 238.34 73.34 237 75 237 c h
75 237 m S Q
1 g
38.625 342 m 261.375 342 l 263.035 342 264.375 343.34 264.375 345 c 264.375
 369 l 264.375 370.66 263.035 372 261.375 372 c 38.625 372 l 36.965 372 
35.625 370.66 35.625 369 c 35.625 345 l 35.625 343.34 36.965 342 38.625 
342 c h
38.625 342 m f
0 g
q 1 0 0 1 0 0 cm
38.625 342 m 261.375 342 l 263.035 342 264.375 343.34 264.375 345 c 264.375
 369 l 264.375 370.66 263.035 372 261.375 372 c 38.625 372 l 36.965 372 
35.625 370.66 35.625 369 c 35.625 345 l 35.625 343.34 36.965 342 38.625 
342 c h
38.625 342 m S Q
10 M q 1 0 0 1 0 0 cm
217.5 66 m 343.5 66 l 343.5 163.32 l S Q
343.5 167.82 m 341.496 161.82 l 343.5 163.32 l 345.504 161.82 l h
343.5 167.82 m f
q 1 0 0 1 0 0 cm
343.5 167.82 m 341.496 161.82 l 343.5 163.32 l 345.504 161.82 l h
343.5 167.82 m S Q
1 g
84 51 m 216 51 l 216.832 51 217.5 51.668 217.5 52.5 c 217.5 79.5 l 217.5
 80.332 216.832 81 216 81 c 84 81 l 83.168 81 82.5 80.332 82.5 79.5 c 82.5
 52.5 l 82.5 51.668 83.168 51 84 51 c h
84 51 m f
0 g
4 M q 1 0 0 1 0 0 cm
84 51 m 216 51 l 216.832 51 217.5 51.668 217.5 52.5 c 217.5 79.5 l 217.5
 80.332 216.832 81 216 81 c 84 81 l 83.168 81 82.5 80.332 82.5 79.5 c 82.5
 52.5 l 82.5 51.668 83.168 51 84 51 c h
84 51 m S Q
0.992157 g
151.32 81 m 151.32 92.25 l 155.25 92.25 l 151.125 99.75 l 147 92.25 l 150.93
 92.25 l 150.93 81 l h
151.32 81 m f
0 g
10 M q 0 1 -1 0 0 0 cm
81 -151.32 m 92.25 -151.32 l 92.25 -155.25 l 99.75 -151.125 l 92.25 -147
 l 92.25 -150.93 l 81 -150.93 l h
81 -151.32 m S Q
q 1 0 0 1 0 0 cm
57.75 102.75 m 245.25 102.75 l S Q
q 1 0 0 1 0 0 cm
244.891 120 m 244.5 103.5 l S Q
q 1 0 0 1 0 0 cm
57.75 120 m 57.75 102.75 l S Q
q 1 0 0 1 0 0 cm
57.375 165 m 244.875 165 l S Q
q 1 0 0 1 0 0 cm
244.125 150.75 m 244.125 164.25 l S Q
q 1 0 0 1 0 0 cm
58.125 150.75 m 58.125 164.25 l S Q
0.992157 g
151.695 165 m 151.695 176.25 l 155.625 176.25 l 151.5 183.75 l 147.375 
176.25 l 151.305 176.25 l 151.305 165 l h
151.695 165 m f
0 g
q 0 1 -1 0 0 0 cm
165 -151.695 m 176.25 -151.695 l 176.25 -155.625 l 183.75 -151.5 l 176.25
 -147.375 l 176.25 -151.305 l 165 -151.305 l h
165 -151.695 m S Q
0.992157 g
151.695 217.5 m 151.695 228.75 l 155.625 228.75 l 151.5 236.25 l 147.375
 228.75 l 151.305 228.75 l 151.305 217.5 l h
151.695 217.5 m f
0 g
q 0 1 -1 0 0 0 cm
217.5 -151.695 m 228.75 -151.695 l 228.75 -155.625 l 236.25 -151.5 l 228.75
 -147.375 l 228.75 -151.305 l 217.5 -151.305 l h
217.5 -151.695 m S Q
0.992157 g
151.32 267 m 151.32 278.25 l 155.25 278.25 l 151.125 285.75 l 147 278.25
 l 150.93 278.25 l 150.93 267 l h
151.32 267 m f
0 g
q 0 1 -1 0 0 0 cm
267 -151.32 m 278.25 -151.32 l 278.25 -155.25 l 285.75 -151.125 l 278.25
 -147 l 278.25 -150.93 l 267 -150.93 l h
267 -151.32 m S Q
0.992157 g
150.945 319.5 m 150.945 330.75 l 154.875 330.75 l 150.75 338.25 l 146.625
 330.75 l 150.555 330.75 l 150.555 319.5 l h
150.945 319.5 m f
0 g
q 0 1 -1 0 0 0 cm
319.5 -150.945 m 330.75 -150.945 l 330.75 -154.875 l 338.25 -150.75 l 330.75
 -146.625 l 330.75 -150.555 l 319.5 -150.555 l h
319.5 -150.945 m S Q
1 g
285.75 169.5 231 180 re f
0 g
0.75 w
4 M q 1 0 0 1 0 0 cm
285.75 169.5 231 180 re S Q
1 g
351.375 180.75 m 451.125 180.75 l 452.996 180.75 454.5 182.254 454.5 184.125
 c 454.5 199.875 l 454.5 201.746 452.996 203.25 451.125 203.25 c 351.375
 203.25 l 349.504 203.25 348 201.746 348 199.875 c 348 184.125 l 348 182.254
 349.504 180.75 351.375 180.75 c h
351.375 180.75 m f
0 g
q 1 0 0 1 0 0 cm
351.375 180.75 m 451.125 180.75 l 452.996 180.75 454.5 182.254 454.5 184.125
 c 454.5 199.875 l 454.5 201.746 452.996 203.25 451.125 203.25 c 351.375
 203.25 l 349.504 203.25 348 201.746 348 199.875 c 348 184.125 l 348 182.254
 349.504 180.75 351.375 180.75 c h
351.375 180.75 m S Q
1 g
295.875 213 m 506.625 213 l 508.496 213 510 214.504 510 216.375 c 510 232.125
 l 510 233.996 508.496 235.5 506.625 235.5 c 295.875 235.5 l 294.004 235.5
 292.5 233.996 292.5 232.125 c 292.5 216.375 l 292.5 214.504 294.004 213
 295.875 213 c h
295.875 213 m f
0 g
q 1 0 0 1 0 0 cm
295.875 213 m 506.625 213 l 508.496 213 510 214.504 510 216.375 c 510 232.125
 l 510 233.996 508.496 235.5 506.625 235.5 c 295.875 235.5 l 294.004 235.5
 292.5 233.996 292.5 232.125 c 292.5 216.375 l 292.5 214.504 294.004 213
 295.875 213 c h
295.875 213 m S Q
1 g
364.5 245.625 m 438 245.625 l 439.871 245.625 441.375 247.129 441.375 249
 c 441.375 264.75 l 441.375 266.621 439.871 268.125 438 268.125 c 364.5 
268.125 l 362.629 268.125 361.125 266.621 361.125 264.75 c 361.125 249 l
 361.125 247.129 362.629 245.625 364.5 245.625 c h
364.5 245.625 m f
0 g
q 1 0 0 1 0 0 cm
364.5 245.625 m 438 245.625 l 439.871 245.625 441.375 247.129 441.375 249
 c 441.375 264.75 l 441.375 266.621 439.871 268.125 438 268.125 c 364.5 
268.125 l 362.629 268.125 361.125 266.621 361.125 264.75 c 361.125 249 l
 361.125 247.129 362.629 245.625 364.5 245.625 c h
364.5 245.625 m S Q
1 g
308.625 315.75 m 493.875 315.75 l 495.746 315.75 497.25 317.254 497.25 
319.125 c 497.25 334.875 l 497.25 336.746 495.746 338.25 493.875 338.25 
c 308.625 338.25 l 306.754 338.25 305.25 336.746 305.25 334.875 c 305.25
 319.125 l 305.25 317.254 306.754 315.75 308.625 315.75 c h
308.625 315.75 m f
0 g
q 1 0 0 1 0 0 cm
308.625 315.75 m 493.875 315.75 l 495.746 315.75 497.25 317.254 497.25 
319.125 c 497.25 334.875 l 497.25 336.746 495.746 338.25 493.875 338.25 
c 308.625 338.25 l 306.754 338.25 305.25 336.746 305.25 334.875 c 305.25
 319.125 l 305.25 317.254 306.754 315.75 308.625 315.75 c h
308.625 315.75 m S Q
1 g
352.5 279.75 m 450 279.75 l 451.871 279.75 453.375 281.254 453.375 283.125
 c 453.375 298.875 l 453.375 300.746 451.871 302.25 450 302.25 c 352.5 302.25
 l 350.629 302.25 349.125 300.746 349.125 298.875 c 349.125 283.125 l 349.125
 281.254 350.629 279.75 352.5 279.75 c h
352.5 279.75 m f
0 g
q 1 0 0 1 0 0 cm
352.5 279.75 m 450 279.75 l 451.871 279.75 453.375 281.254 453.375 283.125
 c 453.375 298.875 l 453.375 300.746 451.871 302.25 450 302.25 c 352.5 302.25
 l 350.629 302.25 349.125 300.746 349.125 298.875 c 349.125 283.125 l 349.125
 281.254 350.629 279.75 352.5 279.75 c h
352.5 279.75 m S Q
10 M q 1 0 0 1 0 0 cm
401.25 203.25 m 401.25 208.223 l S Q
401.25 212.16 m 399.504 206.91 l 401.25 208.223 l 402.996 206.91 l h
401.25 212.16 m f
q 1 0 0 1 0 0 cm
401.25 212.16 m 399.504 206.91 l 401.25 208.223 l 402.996 206.91 l h
401.25 212.16 m S Q
q 1 0 0 1 0 0 cm
401.25 235.5 m 401.25 241.223 l S Q
401.25 245.16 m 399.504 239.91 l 401.25 241.223 l 402.996 239.91 l h
401.25 245.16 m f
q 1 0 0 1 0 0 cm
401.25 245.16 m 399.504 239.91 l 401.25 241.223 l 402.996 239.91 l h
401.25 245.16 m S Q
q 1 0 0 1 0 0 cm
401.25 268.5 m 401.25 274.973 l S Q
401.25 278.91 m 399.504 273.66 l 401.25 274.973 l 402.996 273.66 l h
401.25 278.91 m f
q 1 0 0 1 0 0 cm
401.25 278.91 m 399.504 273.66 l 401.25 274.973 l 402.996 273.66 l h
401.25 278.91 m S Q
q 1 0 0 1 0 0 cm
401.25 302.25 m 401.25 310.973 l S Q
401.25 314.91 m 399.504 309.66 l 401.25 310.973 l 402.996 309.66 l h
401.25 314.91 m f
q 1 0 0 1 0 0 cm
401.25 314.91 m 399.504 309.66 l 401.25 310.973 l 402.996 309.66 l h
401.25 314.91 m S Q
Q Q
showpage
%%Trailer
end
%%EOF
