%!PS-Adobe-3.0 EPSF-3.0
%%Creator: cairo 1.15.10 (http://cairographics.org)
%%CreationDate: Thu Sep 06 21:09:36 2018
%%Pages: 1
%%DocumentData: Clean7Bit
%%LanguageLevel: 2
%%BoundingBox: 0 0 344 209
%%EndComments
%%BeginProlog
50 dict begin
/q { gsave } bind def
/Q { grestore } bind def
/cm { 6 array astore concat } bind def
/w { setlinewidth } bind def
/J { setlinecap } bind def
/j { setlinejoin } bind def
/M { setmiterlimit } bind def
/d { setdash } bind def
/m { moveto } bind def
/l { lineto } bind def
/c { curveto } bind def
/h { closepath } bind def
/re { exch dup neg 3 1 roll 5 3 roll moveto 0 rlineto
      0 exch rlineto 0 rlineto closepath } bind def
/S { stroke } bind def
/f { fill } bind def
/f* { eofill } bind def
/n { newpath } bind def
/W { clip } bind def
/W* { eoclip } bind def
/BT { } bind def
/ET { } bind def
/BDC { mark 3 1 roll /BDC pdfmark } bind def
/EMC { mark /EMC pdfmark } bind def
/cairo_store_point { /cairo_point_y exch def /cairo_point_x exch def } def
/Tj { show currentpoint cairo_store_point } bind def
/TJ {
  {
    dup
    type /stringtype eq
    { show } { -0.001 mul 0 cairo_font_matrix dtransform rmoveto } ifelse
  } forall
  currentpoint cairo_store_point
} bind def
/cairo_selectfont { cairo_font_matrix aload pop pop pop 0 0 6 array astore
    cairo_font exch selectfont cairo_point_x cairo_point_y moveto } bind def
/Tf { pop /cairo_font exch def /cairo_font_matrix where
      { pop cairo_selectfont } if } bind def
/Td { matrix translate cairo_font_matrix matrix concatmatrix dup
      /cairo_font_matrix exch def dup 4 get exch 5 get cairo_store_point
      /cairo_font where { pop cairo_selectfont } if } bind def
/Tm { 2 copy 8 2 roll 6 array astore /cairo_font_matrix exch def
      cairo_store_point /cairo_font where { pop cairo_selectfont } if } bind def
/g { setgray } bind def
/rg { setrgbcolor } bind def
/d1 { setcachedevice } bind def
/cairo_data_source {
  CairoDataIndex CairoData length lt
    { CairoData CairoDataIndex get /CairoDataIndex CairoDataIndex 1 add def }
    { () } ifelse
} def
/cairo_flush_ascii85_file { cairo_ascii85_file status { cairo_ascii85_file flushfile } if } def
/cairo_image { image cairo_flush_ascii85_file } def
/cairo_imagemask { imagemask cairo_flush_ascii85_file } def
%%EndProlog
%%BeginSetup
%%EndSetup
%%Page: 1 1
%%BeginPageSetup
%%PageBoundingBox: 0 0 344 209
%%EndPageSetup
q 0 0 344 209 rectclip
1 0 0 -1 0 209 cm q
1 g
3.879 0 m 340.102 0 l 342.25 0 343.98 1.656 343.98 3.719 c 343.98 205.184
 l 343.98 207.242 342.25 208.902 340.102 208.902 c 3.879 208.902 l 1.73 
208.902 0 207.242 0 205.184 c 0 3.719 l 0 1.656 1.73 0 3.879 0 c h
3.879 0 m f*
0.835294 0.909804 0.831373 rg
161.957 39.863 37.5 127.5 re f
0.509804 0.701961 0.4 rg
0.75 w
0 J
0 j
[] 0.0 d
4 M q 1 0 0 1 0 0 cm
161.957 39.863 37.5 127.5 re S Q
1 g
188.207 24.863 m 173.207 24.863 l 188.207 182.363 m 173.207 182.363 l 180.707
 24.863 m 180.707 182.363 l f
0 g
2.25 w
10 M q 0 1 -1 0 0 0 cm
24.863 -188.207 m 24.863 -173.207 l 182.363 -188.207 m 182.363 -173.207
 l 24.863 -180.707 m 182.363 -180.707 l S Q
q 1 0 0 1 0 0 cm
139.457 166.613 m 139.457 42.863 l S Q
q 1 0 0 1 0 0 cm
139.457 43.613 m 161.957 43.613 l S Q
q 1 0 0 1 0 0 cm
139.457 165.488 m 161.957 165.488 l S Q
0.972549 0.807843 0.8 rg
184.457 13.613 m 184.457 15.684 182.777 17.363 180.707 17.363 c 178.633
 17.363 176.957 15.684 176.957 13.613 c 176.957 11.543 178.633 9.863 180.707
 9.863 c 182.777 9.863 184.457 11.543 184.457 13.613 c h
184.457 13.613 m f
0.721569 0.329412 0.313726 rg
0.75 w
4 M q 1 0 0 1 0 0 cm
184.457 13.613 m 184.457 15.684 182.777 17.363 180.707 17.363 c 178.633
 17.363 176.957 15.684 176.957 13.613 c 176.957 11.543 178.633 9.863 180.707
 9.863 c 182.777 9.863 184.457 11.543 184.457 13.613 c h
184.457 13.613 m S Q
0.972549 0.807843 0.8 rg
184.457 20.363 m 184.457 22.434 182.777 24.113 180.707 24.113 c 178.633
 24.113 176.957 22.434 176.957 20.363 c 176.957 18.293 178.633 16.613 180.707
 16.613 c 182.777 16.613 184.457 18.293 184.457 20.363 c h
184.457 20.363 m f
0.721569 0.329412 0.313726 rg
q 1 0 0 1 0 0 cm
184.457 20.363 m 184.457 22.434 182.777 24.113 180.707 24.113 c 178.633
 24.113 176.957 22.434 176.957 20.363 c 176.957 18.293 178.633 16.613 180.707
 16.613 c 182.777 16.613 184.457 18.293 184.457 20.363 c h
184.457 20.363 m S Q
0.972549 0.807843 0.8 rg
184.457 9.863 m 184.457 11.934 182.777 13.613 180.707 13.613 c 178.633 
13.613 176.957 11.934 176.957 9.863 c 176.957 7.793 178.633 6.113 180.707
 6.113 c 182.777 6.113 184.457 7.793 184.457 9.863 c h
184.457 9.863 m f
0.721569 0.329412 0.313726 rg
q 1 0 0 1 0 0 cm
184.457 9.863 m 184.457 11.934 182.777 13.613 180.707 13.613 c 178.633 
13.613 176.957 11.934 176.957 9.863 c 176.957 7.793 178.633 6.113 180.707
 6.113 c 182.777 6.113 184.457 7.793 184.457 9.863 c h
184.457 9.863 m S Q
0.972549 0.807843 0.8 rg
184.457 189.113 m 184.457 191.184 182.777 192.863 180.707 192.863 c 178.633
 192.863 176.957 191.184 176.957 189.113 c 176.957 187.043 178.633 185.363
 180.707 185.363 c 182.777 185.363 184.457 187.043 184.457 189.113 c h
184.457 189.113 m f
0.721569 0.329412 0.313726 rg
q 1 0 0 1 0 0 cm
184.457 189.113 m 184.457 191.184 182.777 192.863 180.707 192.863 c 178.633
 192.863 176.957 191.184 176.957 189.113 c 176.957 187.043 178.633 185.363
 180.707 185.363 c 182.777 185.363 184.457 187.043 184.457 189.113 c h
184.457 189.113 m S Q
0.972549 0.807843 0.8 rg
184.457 196.613 m 184.457 198.684 182.777 200.363 180.707 200.363 c 178.633
 200.363 176.957 198.684 176.957 196.613 c 176.957 194.543 178.633 192.863
 180.707 192.863 c 182.777 192.863 184.457 194.543 184.457 196.613 c h
184.457 196.613 m f
0.721569 0.329412 0.313726 rg
q 1 0 0 1 0 0 cm
184.457 196.613 m 184.457 198.684 182.777 200.363 180.707 200.363 c 178.633
 200.363 176.957 198.684 176.957 196.613 c 176.957 194.543 178.633 192.863
 180.707 192.863 c 182.777 192.863 184.457 194.543 184.457 196.613 c h
184.457 196.613 m S Q
0 g
1.5 w
10 M q 1 0 0 1 0 0 cm
229.457 17.363 m 213.129 17.094 l S Q
208.637 17.02 m 214.68 14.117 l 213.129 17.094 l 214.582 20.117 l h
208.637 17.02 m f
q 1 0 0 1 0 0 cm
208.637 17.02 m 214.68 14.117 l 213.129 17.094 l 214.582 20.117 l h
208.637 17.02 m S Q
q 1 0 0 1 0 0 cm
229.457 191.738 m 213.129 191.469 l S Q
208.637 191.395 m 214.68 188.492 l 213.129 191.469 l 214.582 194.492 l 
h
208.637 191.395 m f
q 1 0 0 1 0 0 cm
208.637 191.395 m 214.68 188.492 l 213.129 191.469 l 214.582 194.492 l 
h
208.637 191.395 m S Q
q 1 0 0 1 0 0 cm
229.457 47.363 m 213.129 47.094 l S Q
208.637 47.02 m 214.68 44.117 l 213.129 47.094 l 214.582 50.117 l h
208.637 47.02 m f
q 1 0 0 1 0 0 cm
208.637 47.02 m 214.68 44.117 l 213.129 47.094 l 214.582 50.117 l h
208.637 47.02 m S Q
q 1 0 0 1 0 0 cm
229.457 159.863 m 213.129 159.594 l S Q
208.637 159.52 m 214.68 156.617 l 213.129 159.594 l 214.582 162.617 l h
208.637 159.52 m f
q 1 0 0 1 0 0 cm
208.637 159.52 m 214.68 156.617 l 213.129 159.594 l 214.582 162.617 l h
208.637 159.52 m S Q
q 1 0 0 1 0 0 cm
229.457 105.863 m 213.129 105.594 l S Q
208.637 105.52 m 214.68 102.617 l 213.129 105.594 l 214.582 108.617 l h
208.637 105.52 m f
q 1 0 0 1 0 0 cm
208.637 105.52 m 214.68 102.617 l 213.129 105.594 l 214.582 108.617 l h
208.637 105.52 m S Q
Q Q
showpage
%%Trailer
end
%%EOF
